{
  "id": "a32fecf0-dce3-4b8b-9c1f-81b0e49a744a",
  "uid": "laborum-et-et",
  "type": "banner",
  "data": {
    "banner": {
      "dimensions": {
        "width": 900,
        "height": 500
      },
      "alt": "Placeholder image",
      "copyright": null,
      "url": "https://images.unsplash.com/photo-1496181133206-80ce9b88a853?w=900&h=500&fit=crop"
    },
    "title": [
      {
        "type": "paragraph",
        "text": "Sint cupidatat laboris est cillum quis eiusmod pariatur ea cupidatat anim cillum eu officia cupidatat. Dolor excepteur laborum quis laborum velit non quis aute Lorem aliquip ad.",
        "spans": []
      }
    ]
  }
}